{
  "path": "home/diversions",
  "title_nl": "DiVersies",
  "summary_nl": "DiVersies experimenteert met online collecties van culturele instellingen als plek voor dekoloniale en intersectionele praktijken. Ge\u00efnspireerd door de manier waarop versioning in genetwerkte software wordt toegepast, onderzoekt deze publicatie hoe online collecties radicaal verschillende, en soms tegengestelde perspectieven kunnen verwelkomen.",
  "text_nl": "**Download de publicatie**: https://diversions.constantvzw.org/publication/diversions_v1.pdf\n\n**Gedrukt exemplaar: 3\u20ac (excl verzendingskosten)**\n**Zin in een exemplaar? Stuur dan een e-mail naar info@constantvzw.org**\n\nDiversies vond plaats van 4 tot 11 december 2016 in het Koninklijk Museum voor Kunst en Geschiedenis in Brussel en vertrok vanuit de manier waarop versies deel uitmaken van de dagelijkse software-praktijk. Met 35 deelnemers onderzochten we hoe we naast het gebruikelijke verhaal over samenwerking en consensus, ook divergerende vormen van geschiedschrijving mogelijk kunnen maken door plaats te bieden aan verschil. \n\nDe werksessie mondde uit in een tentoonstelling in De Pianofabriek en deze publicatie in 2019.\nEen tweede versie van deze publicatie en van de expo DiVersies zien het licht in juni 2020 in De Krook (Gent).\n\nRedactie: Constant (Elodie Mugrefya, Femke Snelting)\nScenografie: Mia Melv\u00e6r, Cristina Cochior\nGrafisch ontwerp: OSP (Gijs de Heij, Sarah Magnan)\n\nDiVersies is een initatief van Constant en wordt ontwikkeld in samenwerking met: UGent - Department of Educational Studies, Werkplaats immaterieel erfgoed, PACKED - Expertisecentrum Digitaal Erfgoed, RoSa - Kenniscentrum voor gender en feminisme. Met steun van: Vlaamse Overheid, Vlaamse Gemeenschapscommissie, F\u00e9d\u00e9ration Wallonie-Bruxelles Arts Num\u00e9riques.",
  "title_en": "DiVersions",
  "year": "2019",
  "category": "Worksession",
  "link": "https://diversions.constantvzw.org/",
  "summary_en": "DiVersions experiments with online collections of cultural institutions as sites for decolonial and intersectional practice. Inspired by the way versioning functions in networked software tools, this publication explores how online collections can accommodate radically different, and sometimes opposing perspectives.",
  "text_en": "**Download the publication:** https://diversions.constantvzw.org/publication/diversions_v1.pdf\n\n**Printed copy: 3\u20ac (excl shipping costs)**\n**Order a physical copy by sending an email to info@constantvzw.org**\n\nDiVersions took place in the Royal Museum of Art and History in Brussels from 4 to 11 December 2016 and was inspired by the way versions are inscribed in daily software-practice. With 35 participants we explored how parallel to their conventional narrative of collaboration and consensus, we could produce divergent histories through supporting difference. \n\nThe worksession was followed by an exhibition in De Pianofabriek and this publication in 2019. A second version of this publication and of the exhibition will be hosted by De Krook (Ghent) in June 2020.\n\nWith contributions from: Rahel Aima, Ana\u00efs Berck, \u017d. Bla\u0107e, Cristina Cochior, Sarah Kaerts, Phil Langley, Marie L\u00e9crivain, Nicolas Malev\u00e9, Elodie Mugrefya, Zoumana Me\u00eft\u00e9, Mia Melv\u00e6r, Martino Morandi, Michael Murtaugh, Colm o'Neill, Kris Rutten, Amir Sarabadani, Femke Snelting, Saskia Willaert.\n\nEditorial team: Constant (Elodie Mugrefya, Femke Snelting)\nScenography: Mia Melv\u00e6r, Cristina Cochior\nGraphic design: OSP (Gijs de Heij, Sarah Magnan)\n\nDiVersions is an initiative of Constant and developed in partnership with: UGent - Department of Educational Studies, Werkplaats immaterieel erfgoed, PACKED - Expertisecentrum Digitaal Erfgoed, RoSa - Kenniscentrum voor gender en feminisme. With the support of: Vlaamse Overheid, Vlaamse Gemeenschapscommissie, F\u00e9d\u00e9ration Wallonie-Bruxelles Arts Num\u00e9riques.",
  "title_fr": "DiVersions",
  "summary_fr": "DiVersions exp\u00e9rimente avec les collections en ligne d'institutions culturelles comme sites de pratiques d\u00e9coloniales et intersectionnelles. Inspir\u00e9 par la mani\u00e8re dont le versioning fonctionne dans les outils logiciels en r\u00e9seau. Cette publication explorent comment les collections en ligne peuvent s'adapter \u00e0 des perspectives radicalement diff\u00e9rentes, et parfois oppos\u00e9es.",
  "text_fr": "**T\u00e9l\u00e9chargez la publication :** https://diversions.constantvzw.org/publication/diversions_v1.pdf\n\n**Exemplaire imprim\u00e9 : 3\u20ac (excl frais de livraison)**\n**Achetez un exemplaire en envoyant un e-mail \u00e0 info@constantvzw.org**\n\nDiVersions a eu lieu du 4 d\u00e9cembre au 11 d\u00e9cembre 2016 au Mus\u00e9e Royal d\u2019Art et Histoire \u00e0 Bruxelles et s\u2019inspirait de la fa\u00e7on dont les versions font partie de la pratique quotidienne des logiciels. Avec une groupe de 35 participant(e)s, nous avons explor\u00e9 comment celles-ci peuvent rendre possible, au-del\u00e0 des pratiques existantes de collaboration et consensus, des formes divergentes de r\u00e9cits historiques en offrant de l\u2019espace \u00e0 la diff\u00e9rence. \n\nLa session de travail a \u00e9t\u00e9 suivie par une exposition au Pianofabriek et cette publication en octobre 2019. Une deuxi\u00e8me version de DiVersions sera accueillie par De Krook (Gand) en juin 2020 et sera suivie d'une nouvelle version de la publication.\n\nEquipe \u00e9ditoriale : Constant (Elodie Mugrefya, Femke Snelting)\nScenographie : Mia Melv\u00e6r, Cristina Cochior\nGraphisme : OSP (Gijs de Heij, Sarah Magnan)\n\nDiVersions est une initiative de Constant et d\u00e9velopp\u00e9e en partenariat avec UGent - Department of Educational Studies, Werkplaats immaterieel erfgoed, PACKED - Expertisecentrum Digitaal Erfgoed, RoSa - Kenniscentrum voor gender en feminisme.\nAvec le soutien de : Vlaamse Overheid, Vlaamse Gemeenschapscommissie, F\u00e9d\u00e9ration Wallonie-Bruxelles Arts Num\u00e9riques.",
  "cover": "diversions.png"
}
