{
  "path": "home/by_data_we_mean",
  "title_nl": "By Data We Mean",
  "summary_nl": "*By Data We Mean* is een online publicatie als resultaat van [Verbindingen/Jonctions 12](http://constantvzw.org/vj12/). Een creatie van Donatella Portoghese, Nicolas Malev\u00e9, Stephanie Villayphiou, Alex Leray en Gijs de Heij.",
  "text_nl": "*By Data We Mean* is een online publicatie als resultaat van [Verbindingen/Jonctions 12](http://constantvzw.org/vj12/). Een creatie van Donatella Portoghese, Nicolas Malev\u00e9, Stephanie Villayphiou, Alex Leray en Gijs de Heij. \n\nDe publicatie verzamelt teksten die geschreven zijn voor lezingen en presentaties tijdens V/J12. Het is ook een experiment met het potentieel van teksten die onder een vrije licentie worden gepubliceerd. Wat gebeurt er wanneer twee teksten, die op het eerste gezicht erg verschillend zijn, maar tijdens een tweede lezing een reeks gemeenschappelijke elementen vertonen, worden samengebracht en gemixed, en een heel verschillende vorm en betekenis krijgen? Is niet elke tekst ambigu\u00eb en open voor interpretatie? En hoe kan de grijze literatuur die tekstproductie omringt, het leesproces be\u00efnvloeden en decoderen?",
  "cover": "books_vj12.png",
  "title_en": "By Data We Mean",
  "year": "2011",
  "category": "Verbindingen/Jonctions",
  "link": "http://vj12.constantvzw.org",
  "summary_en": "*By Data We Mean* is an online publication following [Verbindingen/Jonctions 12](http://constantvzw.org/vj12/). A creation by Donatella Portoghese, Nicolas Malev\u00e9, Stephanie Villayphiou, Alex Leray and Gijs de Heij.",
  "text_en": "*By Data We Mean* is an online publication following [Verbindingen/Jonctions 12](http://constantvzw.org/vj12/). A creation by Donatella Portoghese, Nicolas Malev\u00e9, Stephanie Villayphiou, Alex Leray and Gijs de Heij.\n\nThis publication collects the different texts that were produced for the lectures and presentation of VJ12. It also constitutes a platform for experiments. What becomes possible when texts are released under a free license? What happens when two texts apparently very different from each other, but with many points of contact at a second reading, are brought together, mixed, smashed, and suddenly acquire a completely different form and meaning? Isn\u2019t every text ambiguous and open to different interpretations? And how can the grey literature surrounding textual production influence the process of reading and decoding it?",
  "title_fr": "By Data We Mean",
  "summary_fr": "*By Data We Mean* est une publication en ligne suite \u00e0 l\u2019\u00e9dition de [Verbindingen/Jonctions 12](http://constantvzw.org/vj12/). R\u00e9alis\u00e9e par Donatella Portoghese, Nicolas Malev\u00e9, Stephanie Villayphiou, Alex Leray et Gijs de Heij.",
  "text_fr": "*By Data We Mean* est une publication en ligne suite \u00e0 l\u2019\u00e9dition de [Verbindingen/Jonctions 12](http://constantvzw.org/vj12/). R\u00e9alis\u00e9e par Donatella Portoghese, Nicolas Malev\u00e9, Stephanie Villayphiou, Alex Leray et Gijs de Heij.\n\nCette publication rassemble les diff\u00e9rents textes qui ont \u00e9t\u00e9 produits pour les conf\u00e9rences et les pr\u00e9sentations de V/J12. Elle est aussi une plateforme pour de nouvelles exp\u00e9riences. Quelles possibilit\u00e9s adviennent lorsque des textes sont publi\u00e9s sous une licence libre ? Que se passe-t-il lorsque deux textes apparemment tr\u00e8s diff\u00e9rents l\u2019un de l\u2019autre, mais qui r\u00e9v\u00e8lent de nombreux points de contact \u00e0 une deuxi\u00e8me lecture, sont soudain mis en relation, mix\u00e9s, p\u00e9tris l\u2019un dans l\u2019autre et acqui\u00e8rent une nouvelle forme et un sens nouveau ? Chaque texte n'est-il pas ambigu et ouvert \u00e0 une r\u00e9interpr\u00e9tation ? Et comment la litt\u00e9rature grise qui encadre la production textuelle influence sa lecture et son d\u00e9codage ?"
}
