{
  "path": "home/promiscuous_pipelines",
  "title_nl": "Promiscuous Pipelines",
  "summary_nl": "In software wordt de term \u2019pipe\u2019 gebruikt om een methode aan te duiden waarbij verschillende modules met elkaar worden verbonden. De uitvoer van \u00e9\u00e9n programma wordt behandeld als de input van het volgende programma. Deze publicatie volgt op de de werksessie Promiscuous Pipelines die Constant in 2015 samen met FoAM organiseerde, en waarin we het principe van \u2019pipes\u2019 gebruikten om ongewone verbindingen te maken en misschien wel het tegenovergestelde te bereiken van een op productiviteit geori\u00ebnteerd systeem.",
  "text_nl": "In software wordt de term \u2019pipe\u2019 gebruikt om een methode aan te duiden waarbij verschillende modules met elkaar worden verbonden. De uitvoer van \u00e9\u00e9n programma wordt behandeld als de input van het volgende programma. Tijdens de werksessie Promiscuous Pipelines die Constant de afgelopen zomer samen met FoAM organiseerde, gebruikten we het principe van \u2019pipes\u2019 om ongewone verbindingen te maken en misschien wel het tegenovergestelde te bereiken van een op productiviteit geori\u00ebnteerd systeem.\nUiteraard benaderden we de reflecties, experimenten en resultaten van deze werksessie vanuit dezelfde methode. De publicatie is een hybride tussen een opgemaakte, gedrukte publicatie en een map met \u2019files\u2019. Een onopgeruimd experiment waarbij op maat gemaakte software, live-notities, ruwe inhoud en collectieve redactie samenkomen.\n\n**Met bijdragen van:**Active Archives, Agustina Andreoletti, An Mertens, Anne Laforet, Bash, bolwerK, Christoph Haag, Dymaxion, Eleanor Saitta, Etherpash, Etherpad, Femke Snelting, Flickr, ffmpeg, Foam, Gijs de Heij, Gottfried Haider, ImageMagick, Marthe Van Dessel, Martino Morandi, Michael Murtaugh, Microraptor/GEGL, Nik Gaffney, OpenCV, \u00d8yvind Kol\u00e5s, Pandoc, Pierre Marchand, Python, QueerOS, Simon Yuill, Sophie Toupin, Sophie Toupin, Unitary Networking, W\u00e6nd, Wendy Van Wijnsberghe, YouTube, Zeljko Blace en veel andere mensen, gereedschappen en bronnen.\n*Met de steun van: FoAM*",
  "cover": "promiscuouspipelines.png",
  "title_en": "Promiscuous Pipelines",
  "year": "2016",
  "category": "Worksession",
  "link": "https://gitlab.constantvzw.org/promiscuouspipelines/pppp",
  "summary_en": "In computation, a \u2019pipe\u2019 is a method that enables various software modules to connect to each other, where the output of one program is treated as the input for the next program. This publication follows the Promiscuous Pipelines worksession that Constant organised with FoAM in 2015, in which we used the principle of \u2019pipes\u2019 to inspire uncommon junctions and perhaps achieve the opposite of a productivity-oriented systems.",
  "text_en": "In computation, a \u2019pipe\u2019 is a method that enables various software modules to connect to each other, where the output of one program is treated as the input for the next program. At the Promiscuous Pipelines worksession that Constant organised with FoAM in 2015 we used the principle of \u2019pipes\u2019 to inspire uncommon junctions and perhaps achieve the opposite of a productivity-oriented systems.\nThe publication of reflections, experiments and other outcomes of this session was of course done in the same spirit. This publication is a hybrid between a formatted, laid-out publication and a folder of \u2019stuff\u2019, an untidy experiment linking up bespoke software, live notes, raw materials and collaborative editing.\n\n**With contributions by:**Active Archives, Agustina Andreoletti, An Mertens, Anne Laforet, Bash, bolwerK, Christoph Haag, Dymaxion, Eleanor Saitta, Etherpash, Etherpad, Femke Snelting, Flickr, ffmpeg, Foam, Gijs de Heij, Gottfried Haider, ImageMagick, Marthe Van Dessel, Martino Morandi, Michael Murtaugh, Microraptor/GEGL, Nik Gaffney, OpenCV, \u00d8yvind Kol\u00e5s, Pandoc, Pierre Marchand, Python, QueerOS, Simon Yuill, Sophie Toupin, Sophie Toupin, Unitary Networking, W\u00e6nd, Wendy Van Wijnsberghe, YouTube, Zeljko Blace and many more people, tools and resources.\n*With the support of: FoAM*",
  "title_fr": "Promiscuous Pipelines",
  "summary_fr": "Dans le monde du logiciel libre, le terme \"pipe\" est utilis\u00e9 pour indiquer un proc\u00e9d\u00e9 dans lequel plusieures modules sont connect\u00e9s les uns aux autres. Les r\u00e9sultats d\u2019un logiciel sont trait\u00e9s comme l\u2019entr\u00e9e du programme suivant. Cette publication suit la s\u00e9ance de travail Promiscuous Pipelines que Constant a organis\u00e9e en 2015 avec FoAM, dans laquelle nous avons utilis\u00e9 le principe de \"pipe\" pour \u00e9tablir des connections inhabituelles et peut-\u00eatre atteindre le contraire d\u2019un syst\u00e8me ax\u00e9e sur la productivit\u00e9.",
  "text_fr": "Dans le monde du logiciel libre, le terme \"pipe\" est utilis\u00e9 pour indiquer un proc\u00e9d\u00e9 dans lequel plusieures modules sont connect\u00e9s les uns aux autres. Les r\u00e9sultats d\u2019un logiciel sont trait\u00e9s comme l\u2019entr\u00e9e du programme suivant. Lors de la s\u00e9ance de travail Promiscuous Pipelines que Constant a organis\u00e9e l\u2019\u00e9t\u00e9 dernier avec FoAM, nous avons utilis\u00e9 le principe de \"pipe\" pour \u00e9tablir des connections inhabituelles et peut-\u00eatre atteindre le contraire d\u2019un syst\u00e8me ax\u00e9e sur la productivit\u00e9.\nBien s\u00fbr, nous avons abord\u00e9 de fa\u00e7on similaire les r\u00e9flexions, exp\u00e9riences et r\u00e9sultats issus de la s\u00e9ance de travail. La publication est l\u2019hybride entre une publication mise en page et un dossier de fichiers. Une exp\u00e9rience en d\u00e9sordre, ou une rencontre entre des logiciels sur mesure, des prises de notes, du contenu brut et la r\u00e9daction collective.\n\n**Aves des contributions de:**Active Archives, Agustina Andreoletti, An Mertens, Anne Laforet, Bash, bolwerK, Christoph Haag, Dymaxion, Eleanor Saitta, Etherpash, Etherpad, Femke Snelting, Flickr, ffmpeg, Foam, Gijs de Heij, Gottfried Haider, ImageMagick, Marthe Van Dessel, Martino Morandi, Michael Murtaugh, Microraptor/GEGL, Nik Gaffney, OpenCV, \u00d8yvind Kol\u00e5s, Pandoc, Pierre Marchand, Python, QueerOS, Simon Yuill, Sophie Toupin, Sophie Toupin, Unitary Networking, W\u00e6nd, Wendy Van Wijnsberghe, YouTube, Zeljko Blace et pleins d'autres personnes, outils et ressources.\n*Avec le soutien de: FoAM*"
}
