{
  "path": "home/conversations",
  "title_nl": "Conversations",
  "summary_nl": "Publicatie van een uitgebreide verzameling gesprekken tussen ontwikkelaars en ontwerpers die betrokken zijn bij het bredere ecosysteem van \u2019Libre Graphics\u2019. Terwijl ze met elkaar spreken over digitale gereedschappen voor typografie, lay-out en beeldbewerking, schetsen ze een portret van een gemeenschap die geleidelijk aan inzicht krijgt in de wederkerige relaties tussen Vrije Software en design.",
  "text_nl": "**Download het boek**: http://conversations.tools\n**Gedrukt exemplaar**: 15\u20ac (excl. verzendingskosten)\n**Zin om een exemplaar te bestellen? Stuur dan een email naar info@constantvzw.org**\n\nPublicatie van een uitgebreide verzameling gesprekken tussen ontwikkelaars en ontwerpers die betrokken zijn bij het bredere ecosysteem van \u2019Libre Graphics\u2019. Terwijl ze met elkaar spreken over digitale gereedschappen voor typografie, lay-out en beeldbewerking, schetsen ze een portret van een gemeenschap die geleidelijk aan inzicht krijgt in de wederkerige relaties tussen Vrije Software en design. *Conversations* werd geredigeerd door Femke Snelting in samenwerking met Christoph Haag.\n\n**Met**: Agnes Bewer, Alexandre Leray, An Mertens, Andreas Vox, Asheesh Laroia, Carla Boserman, Christina Clar, Chris Lilley, Christoph Haag, Claire Williams, Cornelia Sollfrank, Dave Crossland, Denis Jacquery, Dmytri Kleiner, Eleanor Greenhalgh, Eric Schrijver, Evan Roth, Femke Snelting, Franziska Kleiner, George Williams, Gijs de Heij, Harrisson, Ivan Monroy Lopez, John Haltiwanger, John Colenbrander, Juliane De Moerlooze, Julien Deswaef, Larisa Blazic, Ludivine Loiseau, Manuel Schmalstieg, Matthew Fuller, Michael Murtaugh, Michael Terry, Michele Walther, Miguel Arana Catania, momo3010, Nicolas Malev\u00e9, Pedro Amado, Peter Westenberg, Pierre Huyghebaert, Pierre Marchand, Sarah Magnan, St\u00e9phanie Vilayphiou, Tom Lechner, Urantsetseg Ulziikhuu, Xavier Klein.\n\nISBN: 978-9-0811-4593-0",
  "title_en": "Conversations",
  "year": "2015",
  "category": "Projects",
  "link": "http://conversations.tools",
  "summary_en": "Publication of an extensive collection of conversations between developers and designers involved in the wider ecosystem of Libre Graphics. Speaking to each other about tools for typography, lay-out and image processing they render a portrait of a community gradually understanding the interdependencies between Free Software and design.",
  "text_en": "**Download the book**: http://conversations.tools\n**Printed copy**: 15\u20ac (excl shipping costs)\n**Interested to order a copy? Please email info@constantvzw.org**\n\nPublication of an extensive collection of conversations between developers and designers involved in the wider ecosystem of Libre Graphics. Speaking to each other about tools for typography, lay-out and image processing they render a portrait of a community gradually understanding the interdependencies between Free Software and design. *Conversations* was edited by Femke Snelting in collaboration with Christoph Haag.\n\n**With**: Agnes Bewer, Alexandre Leray, An Mertens, Andreas Vox, Asheesh Laroia, Carla Boserman, Christina Clar, Chris Lilley, Christoph Haag, Claire Williams, Cornelia Sollfrank, Dave Crossland, Denis Jacquery, Dmytri Kleiner, Eleanor Greenhalgh, Eric Schrijver, Evan Roth, Femke Snelting, Franziska Kleiner, George Williams, Gijs de Heij, Harrisson, Ivan Monroy Lopez, John Haltiwanger, John Colenbrander, Juliane De Moerlooze, Julien Deswaef, Larisa Blazic, Ludivine Loiseau, Manuel Schmalstieg, Matthew Fuller, Michael Murtaugh, Michael Terry, Michele Walther, Miguel Arana Catania, momo3010, Nicolas Malev\u00e9, Pedro Amado, Peter Westenberg, Pierre Huyghebaert, Pierre Marchand, Sarah Magnan, St\u00e9phanie Vilayphiou, Tom Lechner, Urantsetseg Ulziikhuu, Xavier Klein.\n\nISBN: 978-9-0811-4593-0",
  "title_fr": "Conversations",
  "summary_fr": "La publication d\u2019une collection de conversations entre des d\u00e9veloppeurs et des artistes et graphistes impliqu\u00e9s dans l\u2019\u00e9cosyst\u00e8me du \u2019Libre Graphics\u2019. Lors de discussions autour d\u2019outils pour la typographie, de la mise en page et de l\u2019image, ils tracent le portrait d\u2019une communaut\u00e9 qui comprend progressivement les interd\u00e9pendances entre les logiciels libres et le design.",
  "text_fr": "**T\u00e9l\u00e9chargez le livre** : http://conversations.tools\n**Exemplaire imprim\u00e9** : 15\u20ac (excl frais de livraison)\n**Envie de commander un exemplaire ? Merci d'envoyer un e-mail \u00e0 info@constantvzw.org**\n\nLa publication d\u2019une collection de conversations entre des d\u00e9veloppeurs et des artistes et graphistes impliqu\u00e9s dans l\u2019\u00e9cosyst\u00e8me du \u2019Libre Graphics\u2019. Lors de discussions autour d\u2019outils pour la typographie, de la mise en page et de l\u2019image, ils tracent le portrait d\u2019une communaut\u00e9 qui comprend progressivement les interd\u00e9pendances entre les logiciels libres et le design. *Conversations* a \u00e9t\u00e9 \u00e9dit\u00e9 par Femke Snelting en collaboration avec Christoph Haag.\n\n**Avec**: Agnes Bewer, Alexandre Leray, An Mertens, Andreas Vox, Asheesh Laroia, Carla Boserman, Christina Clar, Chris Lilley, Christoph Haag, Claire Williams, Cornelia Sollfrank, Dave Crossland, Denis Jacquery, Dmytri Kleiner, Eleanor Greenhalgh, Eric Schrijver, Evan Roth, Femke Snelting, Franziska Kleiner, George Williams, Gijs de Heij, Harrisson, Ivan Monroy Lopez, John Haltiwanger, John Colenbrander, Juliane De Moerlooze, Julien Deswaef, Larisa Blazic, Ludivine Loiseau, Manuel Schmalstieg, Matthew Fuller, Michael Murtaugh, Michael Terry, Michele Walther, Miguel Arana Catania, momo3010, Nicolas Malev\u00e9, Pedro Amado, Peter Westenberg, Pierre Huyghebaert, Pierre Marchand, Sarah Magnan, St\u00e9phanie Vilayphiou, Tom Lechner, Urantsetseg Ulziikhuu, Xavier Klein.\n\nISBN: 978-9-0811-4593-0",
  "cover": "conversations.png"
}
