{
  "path": "home/la_langue_schaerbeekoise",
  "title_nl": "Woorden uit de Berenkuil / Mots de la Cage aux Ours",
  "summary_nl": "Een verzameling van teksten, beelden en een woordenboek met woorden die tussen 2009 en 2012 werden uitgesproken door bewoners in de buurt van het Verboekhovenplein in Schaarbeek.",
  "text_nl": "**Download het boek**: http://deschaarbeeksetaal.be/media/livre_boek.pdf\n**Gedrukt exemplaar: 12\u20ac (excl verzendingskosten)**\n**Zin om  een exemplaar te bestellen? Stuur dan een email naar info@constantvzw.org**\n\n*Mots de la Cage aux Ours/Woorden uit de Berenkuil* is een verzameling van woorden uit de spreektaal op en rond het Verboekhovenplein in Schaarbeek. Geen nostalgie naar het Brussels dialect, maar een weerspiegeling van de taalkundige mengelmoes die er leeft.\nDe keuze van de woorden werd bepaald door de intu\u00eftie van drie kunstenaars van Constant \u2013 Cl\u00e9mentine Delahaut, Peter Westenberg, An Mertens - tijdens ontmoetingen met bewoners en gebruikers van de Berenkuil tussen 2009 en 2012 in het kader van het Wijkcontract Navez-Portaels. Voor elk woord is de zin opgenomen waarin het woord voor het eerst werd gehoord. Bij de meeste woorden vind je ook een definitie, zoals ze werd gegeven door de bewoner. Niet bij alle woorden: ondanks de intentie om een woordenboek te maken, wonnen de menselijke aard, de sappige verhalen en de flow van het gesprek het vaak van de vorm. Dat maakt van het boek ook een curiosum in het genre van het woordenboek. Vendim? Pipas! \n\nMet bijdragen van: Isabelle Doucet (urbaniste), Fatima Zibouh (politologe), Myriam Stoffen (Zinneke Parade), Judith Van Istendael (striptekenaar), In Koli Jean Bofane (schrijver), J\u00e9r\u00e9mie Piolat (filosoof), Milady Renoir (schrijfster, performer), Jamal Youssfi (Compagnie des Nouveaux Disparus & festival Mimouna). \nLay-out: OSP, Ludivine Loiseau, Alexandre Leray\nBeelden: Peter Westenberg, Pablo Castilla, Cl\u00e9mentine Delahaut\nKaarten: Pierre Marchand\n\nISBN: 978-9-0811-4590-9\n\n*Met de steun van: Het Brussels Hoofdstedelijk Gewest en de gemeente Schaarbeek*",
  "cover": "schaarbeek.png",
  "title_en": "Woorden uit de Berenkuil / Mots de la Cage aux Ours",
  "year": "2012",
  "category": "Projects",
  "link": "http://lalangueschaerbeekoise.be",
  "summary_en": "A collection of texts, images and spoken words used by different groups around the Place Verboekhoven, aka La Cage aux Ours. The words are also part of the online sound dictionary of La Langue Schaerbeekoise/De Schaerbeekse Taal, a project that took place under the Contrat de Quartier Durable Navez-Portaels between 2009 and 2012.",
  "text_en": "**Download the book**: http://deschaarbeeksetaal.be/media/livre_boek.pdf\n**English version of the texts**: http://deschaarbeeksetaal.be/media/translation.pdf\n\n**Printed copy: 12\u20ac (excl shipping costs)**\n**Interested to order a copy? Please email info@constantvzw.org**\n\n*Mots de la Cage aux Ours/Woorden uit de Berenkuil* is a collection of spoken words used by different groups around the Place Verboekhoven, aka La Cage aux Ours. The words are also part of the online sound dictionary of La Langue Schaerbeekoise / De Schaerbeekse Taal, a project that took place under the Contrat de Quartier Durable Navez-Portaels between 2009 and 2012. The project aimed to promote social cohesion between different communities while reflecting the linguistic wealth around the Cage aux Ours.\n\nArabic, Turkish, Berber, Dutch, Brussels, Swahili, Spanish, Polish are just a selection of the variety of languages that season the French, the current language of the neighborhood. The Dictionary of Language Schaerbeekoise fed on these influences, it is open, flexible and organic. The selection of words was based on the intuition of the three artists coordinators of the project: Cl\u00e9mentine Delahaut, Peter Westenberg and An Mertens.\n\nWith contributions by: Isabelle Doucet (urbanist), Fatima Zibouh (politologue), Myriam Stoffen (Zinneke Parade), Judith Van Istendael (comic artist), In Koli Jean Bofane (writer), J\u00e9r\u00e9mie Piolat (philosopher), Milady Renoir (writer, performer), Jamal Youssfi (Compagnie des Nouveaux Disparus & festival Mimouna). \nLay-out: OSP, Ludivine Loiseau, Alexandre Leray\nImages: Peter Westenberg, Pablo Castilla, Cl\u00e9mentine Delahaut\nMaps: Pierre Marchand\n\nISBN: 978-9-0811-4590-9\n\n*With the support of: La R\u00e9gion de Bruxelles-Capitale and la Commune de Schaerbeek*",
  "title_fr": "Woorden uit de Berenkuil / Mots de la Cage aux Ours",
  "summary_fr": "Une collection de textes et images, et un dictionnaire hors du commun qui reprend des mots de la langue parl\u00e9e dans le quartier de la Place Verboekhoven \u00e0 Schaerbeek entre 2009 et 2012.",
  "text_fr": "**T\u00e9l\u00e9chargez le livre**: http://deschaarbeeksetaal.be/media/livre_boek.pdf\n**Exemplaire imprim\u00e9 : 12\u20ac (excl frais de livraison)**\n**Envie de commander un exemplaire ? Merci d'envoyer un e-mail \u00e0 info@constantvzw.org**\n\n*Mots de la Cage aux Ours/Woorden uit de Berenkuil* est un dictionnaire hors du commun qui reprend des mots de la langue parl\u00e9e dans le quartier de la Place Verboekhoven \u00e0 Schaerbeek. \nLe choix des mots a \u00e9t\u00e9 dict\u00e9 par l\u2019intuition de trois artistes de Constant \u2013 Cl\u00e9mentine Delahaut, Peter Westenberg, An Mertens - lors de leurs rencontres avec des habitants du quartier entre 2009 et 2012, dans le cadre du Contrat de Quartier Navez-Portaels. Chaque mot est accompagn\u00e9 de la phrase enregistr\u00e9e o\u00f9 le mot a \u00e9t\u00e9 entendu pour la premi\u00e8re fois, et la plupart des mots \u2013 pas tous \u2013 sont expliqu\u00e9s \u00e0 l\u2019aide d\u2019une d\u00e9finition apport\u00e9e par la personne qui nous a offert le mot. Malgr\u00e9 l\u2019intention de cr\u00e9er un dictionnaire, la nature humaine, les bons r\u00e9cits et le d\u00e9roulement de l\u2019entretien l\u2019ont souvent emport\u00e9 sur la forme, ce qui fait de Tsjehiler\u00a0! Mots de la Cage aux Ours une curiosit\u00e9 dans le genre des dictionnaires. Vendim?\n\nAvec des contributions de: Isabelle Doucet (urbaniste), Fatima Zibouh (politologue), Myriam Stoffen (Zinneke Parade), Judith Van Istendael (dessinatrice BD), In Koli Jean Bofane (\u00e9crivain), J\u00e9r\u00e9mie Piolat (philosophe), Milady Renoir (\u00e9crivaine, performer), Jamal Youssfi (Compagnie des Nouveaux Disparus & festival Mimouna). \nMise-en-page: OSP, Ludivine Loiseau, Alexandre Leray\nImages: Peter Westenberg, Pablo Castilla, Cl\u00e9mentine Delahaut\nCartes: Pierre Marchand\n\nISBN: 978-9-0811-4590-9\n\n*Avec le support de: La R\u00e9gion de Bruxelles-Capitale and la Commune de Schaerbeek*"
}
