{
  "path": "1-guests/varia",
  "title_nl": "Networks of Ones Own #1 : Varia",
  "summary_nl": "Het tweede nummer van Networks of One's Own is ge\u00efnitieerd door Varia, een Rotterdams initiatief dat zich richt op het werken met, rond en door middel van alledaagse technologie. Met deze publicatie werd een ruimte gecre\u00eberd die meerdere manieren van zorg met elkaar verbindt, door specifiek te focussen op drie projecten: Bibliotecha, homebrewserver.club en Relearn.",
  "text_nl": "**Digitale versie van de publicatie:** https://networksofonesown.vvvvvvaria.org/\n**Gedrukt exemplaar 13\u20ac + verzending:** stuur een email naar info@varia.zone\n\nHet tweede nummer van Networks of One's Own is ge\u00efnitieerd door Varia, een Rotterdams initiatief dat zich richt op het werken met, rond en door middel van alledaagse technologie.\n\nDeze publicatie is een gelegenheid om drie zeer verschillende projecten die belangrijk zijn geweest voor de opkomst van Varia, en voor de individuele leden, opnieuw te bekijken. Deze projecten geven inzicht in het hoe en waarom van onze samenwerking. Terwijl we in verschillende formaties bijeenkwamen om deze projecten te initi\u00ebren, te ontwikkelen, te organiseren of te presenteren, werd Varia bedacht, eerst als een idee, daarna als een groep en later als een fysieke ruimte.\n\nAls kunstenaars, ontwerpers en onderzoekers die werken met en rond free/libre open source technologie, wordt het auteurschap van de tools en het onderzoek dat we ontwikkelen gedeeld, niet alleen onder ons bij Varia maar ook met een breder internationaal netwerk. Meerdere agenten zijn op verschillende momenten betrokken, met wisselende intensiteit en om verschillende redenen. Dit resulteert in complexe eigendomsverhoudingen die de documentatie en het onderhoud op lange termijn bemoeilijken. Relationele projecten hebben flexibele ondersteuningsstructuren nodig die versnippering en clustering kunnen opvangen en in stand houden.\n\nVoor de projecten in deze publicatie zorgde een reeks onderling samenhangende evenementen voor een infrastructuur die op lange termijn reflectie toeliet, uitwisseling en collectieve aandacht. Onze wegen kruisten bij Varia in Rotterdam, maar ook tijdens 35c3 in Leipzig, op de Computer Grrrls tentoonstelling in Parijs, tijdens Constant worksessions in Brussel en Antwerpen, in gesprek met XPUB docenten en studenten of bij AMRO in Linz. Veel werk werd verzet door deze projecten naar verschillende ontmoetingsplaatsen te brengen. Tegelijk vonden we dat er nood was aan geconcentreerde herwerking en actieve documentatie. In de combinatie van onderhoudswerk en publicatie vonden we een vorm die dit collectieve zorgwerk mogelijk maakte en brachten we de nodige geconcentreerde tijd samen door. Met deze publicatie is er een ruimte ontstaan om meerdere zorgwerkzaamheden met elkaar te verbinden. We hopen dat de projecten nu duidelijker gearticuleerd zijn en klaar om weer te reizen door de netwerken en nieuwe opstellingen te vormen.",
  "cover": "Varia.png",
  "title_en": "Networks of Ones Own #1 : Varia",
  "year": "2019",
  "category": "Guests",
  "link": "https://networksofonesown.constantvzw.org/",
  "summary_en": "The second issue of Networks of One's Own was initiated by Varia, a Rotterdam based initiative which focuses on working with, on and through everyday technology. The making of this publication created a space to interconnect multiple ways of taking care, by specifically focusing on three projects: Bibliotecha, homebrewserver.club and Relearn.",
  "text_en": "**Digital version of the publication:** https://networksofonesown.vvvvvvaria.org/\n**Printed copy 13\u20ac + sending:** please email info@varia.zone\n\nThe second issue of Networks of One's Own was initiated by Varia, a Rotterdam based initiative which focuses on working with, on and through everyday technology.\n\nThis publication is an occasion to revisit three very different projects that have been important for the emergence of Varia, and for its individual members. These projects give insights into how and why we engage with collaborative practices. While we were gathering in different formations to initiate, develop, organise or present these projects, Varia was being conceived, first as an idea, then as a group and later as a physical space.\n\nAs artists, designers and researchers working with and around free/libre open source technology, the authorship of the tools and research that we develop is shared, not just amongst us at Varia but also with a wider international network. Multiple agents are involved at different moments, with varying intensity and for a range of different reasons. This results in intricate interrelationships of ownership which complicate documentation and long-term maintenance. Relational projects need flexible support structures that can handle and hold fragmentation and clustering.\n\nFor the projects in this publication, a chain of interrelated events provided an infrastructure for ongoing reflection, sharing and collaborative attention to such projects. Our path crossed at Varia in Rotterdam but also during 35c3 in Leipzig, at the Computer Grrrls exhibition in Paris, at Constant worksessions in Brussels and Antwerp, in conversation with XPUB tutors and students or at AMRO in Linz. While a lot of work was done by bringing these projects to different meeting points, we felt there was a need for concentrated rumination and active documentation. By collapsing maintenance work with publishing, we found a form that enabled this collective care work to happen and to spend the necessary concentrated time together. The making of this publication created a space to interconnect multiple ways of taking care. As a result, we hope that the projects have become more clearly articulated and are now ready to be released back into the networks to form new constellations.",
  "title_fr": "Networks of Ones Own #1 : Varia",
  "summary_fr": "Le deuxi\u00e8me num\u00e9ro de Networks of One's Own a \u00e9t\u00e9 lanc\u00e9 par Varia, une initiative bas\u00e9e \u00e0 Rotterdam qui se concentre sur le travail avec, sur et par la technologie de tous les jours. La r\u00e9alisation de cette publication a cr\u00e9\u00e9 un espace permettant d'interconnecter de multiples fa\u00e7ons de prendre soin, en se concentrant sp\u00e9cifiquement sur trois projets : Bibliotecha, homebrewserver.club et Relearn.",
  "text_fr": "**Version digitale de la publication:** https://networksofonesown.vvvvvvaria.org/\n**Exemplaire imprim\u00e9 13\u20ac + envoi:** merci d'envoyer un email \u00e0 info@varia.zone\n\nLe deuxi\u00e8me num\u00e9ro de Networks of One's Own a \u00e9t\u00e9 lanc\u00e9 par Varia, une initiative bas\u00e9e \u00e0 Rotterdam qui se concentre sur le travail avec, sur et par la technologie de tous les jours.\n\nCette publication est l'occasion de revenir sur trois projets tr\u00e8s diff\u00e9rents qui ont \u00e9t\u00e9 importants pour l'apparition de Varia, et pour ses membres individuels. Ces projets donnent un aper\u00e7u de la mani\u00e8re dont nous nous engageons dans des pratiques de collaboration et des raisons pour lesquelles nous le faisons. Alors que nous nous r\u00e9unissions en diff\u00e9rentes formations pour initier, d\u00e9velopper, organiser ou pr\u00e9senter ces projets, Varia \u00e9tait con\u00e7u, d'abord comme une id\u00e9e, puis comme un groupe et plus tard comme un espace physique.\n\nEn tant qu'artistes, designers et chercheurs travaillant avec et autour de la technologie libre, la paternit\u00e9 des outils et des recherches que nous d\u00e9veloppons est partag\u00e9e, non seulement entre nous \u00e0 Varia mais aussi avec un r\u00e9seau international plus large. De multiples acteurs sont impliqu\u00e9s \u00e0 de diff\u00e9rents moments, avec une intensit\u00e9 variable et pour une s\u00e9rie de raisons diff\u00e9rentes. Il en r\u00e9sulte des relations complexes de propri\u00e9t\u00e9 qui compliquent la documentation et la maintenance \u00e0 long terme. Les projets relationnels ont besoin de structures de soutien flexibles qui peuvent g\u00e9rer et maintenir la fragmentation et le regroupement.\n\nPour les projets pr\u00e9sent\u00e9s dans cette publication, une cha\u00eene d'\u00e9v\u00e9nements interd\u00e9pendants a fourni une infrastructure pour une r\u00e9flexion, un partage et une attention collaborative continus \u00e0 ces projets. Nos chemins se sont crois\u00e9s \u00e0 Varia \u00e0 Rotterdam, mais aussi pendant 35c3 \u00e0 Leipzig, \u00e0 l'exposition Computer Grrrls \u00e0 Paris, aux sessions de travail Constant \u00e0 Bruxelles et \u00e0 Anvers, en conversation avec des professeurs et des \u00e9tudiants XPUB ou \u00e0 AMRO \u00e0 Linz. Bien que beaucoup de travail ait \u00e9t\u00e9 r\u00e9alis\u00e9 en amenant ces projets \u00e0 diff\u00e9rents points de rencontre, nous avons ressenti le besoin d'une rumination concentr\u00e9e et d'une documentation active. En associant le travail de maintenance \u00e0 la publication, nous avons trouv\u00e9 une forme qui permettait \u00e0 ce travail de soins collectifs de se produire et de passer du temps concentr\u00e9 ensemble. La r\u00e9alisation de cette publication a cr\u00e9\u00e9 un espace permettant d'interconnecter de multiples fa\u00e7ons de prendre soin. En cons\u00e9quence, nous esp\u00e9rons que les projets sont devenus plus clairement articul\u00e9s et sont maintenant pr\u00eats \u00e0 \u00eatre remis en r\u00e9seau pour former de nouvelles constellations."
}
