{
  "path": "home/cqrrelations",
  "title_nl": "Cqrrelations",
  "summary_nl": "Deze publicatie toont de verschillende stadia van experimenten en ontmoetingen die plaatsvonden tijdens de collectieve residentie Cqrrelaties in januari 2015. Ze gebruikt zoveel mogelijk de technieken en methodes die gebruikt zijn tijdens het evenement. Daarom bestaat de publicatie vooral uit de autoindex-functie van de Apache webserver, die alle documenten standaard in een webfolder rangschikt.",
  "text_nl": "Deze website is een verzameling van sporen en materiaal dat aangemaakt werd voor, tijdens en na Cqrrelaties, een werksessie die Constant in 2015 organiseerde in deBuren in Brussel. \nCqrrelaties nodigde datareizigers uit, schrijvers, cijfergeeks, programmeurs, kunstenaars, wiskundigen, verhalenvertellers en andere techcreatieve duizendpoten voor een ontdekkingsreis langs de non-relaties, desanalyses, vage categoriseringen en crymmylaties in de Big Data die onze dagdagelijkse omgeving en taal mee vormgeven. \n\nDit notitieboek geeft een overzicht van de verschillende soorten inhoud die zich op de server(s) bevond tijdens de werksessie: de folder waarin deelnemers documenten deelden, georganiseerd per project; de \"dump\" van de Etherpad installatie die werd gebruikt om aantekeningen te maken tijdens de werksessie; geluidsopnames van de verschillende presentaties die plaatsvonden tijdens die week; en de video-opnames van 'Big Data & Discrimination', het publieke evenment georganiseerd in samenwerking met [Vlaams Nederlands Huis deBuren](http://deburen.eu/) en [CPDP](http://www.cpdpconferences.org/).\n\nDeze publicatie toont de verschillende stadia van experimenten en ontmoetingen die plaatsvinden tijdens een collectieve residentie, en dit zoveel mogelijk in overeenstemming met de technieken en methodes die gebruikt zijn tijdens het evenement. Daarom bestaat de website vooral uit de autoindex-functie van de Apache webserver, die alle documenten standaard in een webfolder rangschikt.",
  "cover": "books_cqrrelations.png",
  "title_en": "Cqrrelations",
  "year": "2016",
  "category": "Worksession",
  "link": "http://www.cqrrelations.constantvzw.org/0x0/",
  "summary_en": "This publication is an attempt to collect the different stages of the experiments and the encounters that happened at the collective residency Cqrrelations in January 2015, in a way that stays consistent with the techniques and the approaches involved in the event itself. For this reason the publication is mainly consisting of the autoindex function of the Apache webserver, which by default lists all the files inside a web folder.",
  "text_en": "This website collects all kinds of traces and materials produced before, during and after the Cqrrelations worksession, organized by Constant in 2015 in Bruxelles. \nCqrrelations invited data travellers, writers, numbergeeks, programmers, artists, mathematicians, storytellers, and other tech creative souls to explore the world of digital non-relations, desanalysis, blurry categorisations and crummylations in the Big Data that shapes our daily reality and language.\n\nThis notebook is an aggregation of different types of content from the server(s) running during the worksession: the content of the file server where files were shared in-between participants, re-ordered by project; the \"dump\" of the Etherpad installation used to take notes during the worksession; the sound recordings of different presentations that happened during the two weeks; and the video recording of 'Big Data & Discrimination', the public event organised in collaboration with [Vlaams Nederlands Huis deBuren](http://deburen.eu/) and [CPDP](http://www.cpdpconferences.org/).\n\nThis publication is an attempt to collect the different stages of the experiments and the encounters that happen at a collective residency, in a way that stays consistent with the techniques and the approaches involved in the event itself. For this reason the website is mainly consisting of the autoindex function of the Apache webserver, which by default lists all the files inside a web folder.",
  "title_fr": "Cqrrelations",
  "summary_fr": "Cette publication vise \u00e0 montrer les diff\u00e9rentes phases d'exp\u00e9rimentations et de rencontres qui ont eu lieu lors de la r\u00e9sidence collective Cqrrelations en janvier 2015, et ceci, dans la mesure du possible, en accord avec les technologies et m\u00e9thodes qui ont \u00e9t\u00e9 utilis\u00e9es lors de l'\u00e9v\u00e9nement. Voil\u00e0 pourquoi la publication consiste en grande partie de la fonction d'auto-indexation du serveur web Apache, qui organise tous les documents par d\u00e9faut dans un dossier.",
  "text_fr": "Ce site web est une collection de traces et mat\u00e9riaux qui ont \u00e9t\u00e9 produits avant, pendant et apr\u00e8s Cqrrelations, la session de travail organis\u00e9 par Constant en 2015 \u00e0 deBuren \u00e0 Bruxelles. \nLors de cette r\u00e9sidence Constant a invit\u00e9 des explorateurs de donn\u00e9es, des \u00e9crivains, des amateurs de chiffres, des programmeurs, des artistes, des math\u00e9maticiens, des conteurs et d\u2019autres \u00e2mes techno-cr\u00e9atives \u00e0 venir d\u00e9couvrir le monde des non-relations digitales, des d\u00e9sanalyses, des cat\u00e9gorisations floues et d\u2019autre crummylations pr\u00e9sentes dans les Big Data qui donnent de plus en plus de forme \u00e0 nos r\u00e9alit\u00e9s et languages quotidiens.\n\nCe cahier de notes donne un aper\u00e7u des diff\u00e9rents types de contenus localis\u00e9s sur le(s) serveur(s) pendant la session de travail: le dossier utilis\u00e9 par les participants pour partager leurs documents, organis\u00e9 par projet; le \"dump\" de l'installation Etherpad qui a \u00e9t\u00e9 utilis\u00e9e pour prendre des notes lors de la session de travail; des enregistrements sonores des multiples pr\u00e9sentations; et des enregistrements vid\u00e9o de 'Big Data & Discrimination', l'\u00e9v\u00e9nement public organis\u00e9 en collaboration avec [Vlaams Nederlands Huis deBuren](http://deburen.eu/) et [CPDP](http://www.cpdpconferences.org/). \n\nCette publication vise \u00e0 montrer les diff\u00e9rentes phases d'exp\u00e9rimentations et de rencontres qui ont lieu lors d'une r\u00e9sidence collective, et ceci, dans la mesure du possible, en accord avec les technologies et m\u00e9thodes qui ont \u00e9t\u00e9 utilis\u00e9es lors de l'\u00e9v\u00e9nement. Voil\u00e0 pourquoi le site web consiste en grande partie de la fonction d'auto-indexation du serveur web Apache, qui organise tous les documents par d\u00e9faut dans un dossier."
}
